{
    "envUno": {
        "awscloudformation": {
            "AuthRoleName": "app-uno-20190116011426-authRole",
            "UnauthRoleArn": "arn:aws:iam::743139322696:role/app-uno-20190116011426-unauthRole",
            "AuthRoleArn": "arn:aws:iam::743139322696:role/app-uno-20190116011426-authRole",
            "Region": "us-east-2",
            "DeploymentBucketName": "app-uno-20190116011426-deployment",
            "UnauthRoleName": "app-uno-20190116011426-unauthRole",
            "StackName": "app-uno-20190116011426",
            "StackId": "arn:aws:cloudformation:us-east-2:743139322696:stack/app-uno-20190116011426/f832c4a0-18fd-11e9-9472-0a2e34a37100"
        },
        "categories": {
            "auth": {
                "cognito33f8a530": {}
            }
        }
    }
}